ID,Title of content,Short summary of content,Detailed description of content,Keyword descriptors,Relevant sector / discipline area,Geographic focus of content,Geographic coverage,Longitude and Latitude ,Content Owner (s) / Rights Holder (s),Associated project or activity,Link to associated project or activity,current content holder/custodian,contact person and details,Accessing the content,Year of publication/ date range,Content Type,Format,Who Collected this content?,
3280972c-292a-11e6-a823-a0999b1beb5b,"PROVIA Guidance on Assessing Vulnerability, Impacts and Adaptation to Climate Change","This is the latest global Guideline on how to conduct Assessing Vulnerability, Impacts and Adaptation to Climate Change","This document provides methodological guidance on assessing climate change vulnerability, impacts and adaptation as well as on implementing, monitoring and evaluating adaptation. It is intended as the revision and improvement of existing guidelines such as those of the [IPCC Technical Guidelines (1994)](http://www.ipcc-wg3.de/special-reports/.files-images/ipcc-technical-guidelines-1994n.pdf) and the [UNEP Handbook (1998)](http://unfccc.int/adaptation/nairobi_work_programme/knowledge_resources_and_publications/items/5503.php).The PROVIA guidance outlines the principal approaches and methods for addressing different kinds of adaptation challenges. It also presents criteria and decision trees to assist the reader in selecting appropriate methods for climate risk assessment and adaptation, which are also available online here (blah blah gives link here). Targeted audience: researchers, adaptation practitioners, decision-makers and those involved in project, programme and policy formulation.","CLIMATE AND WEATHER Adaptation, CLIMATE AND WEATHER Impacts, CLIMATE AND WEATHER Risks","Climate Change Adaptation, Climate Change Vulnerability & Impact Assessment, Disaster Risk Management, Education & Training",Global,N/A,,United Nations Environment Programme (UNEP),"The Global Programme of Research on Climate Change Vulnerability, Impacts and Adaptation (PROVIA) is a scientific initiative of the United Nations Environment Programme (UNEP), the United Nations Educational, Scientific and Cultural Organization (UNESCO) and the World Meteorological Organization (WMO) that seeks to harmonize, mobilize and communicate the growing knowledge base on vulnerability, impacts and adaptation.",,United Nations Environment Programme (UNEP),,http://www.unep.org/provia,2013,"Educational resource , Publication",pdf,Dewi Kirono,
328223c2-292a-11e6-9e5b-a0999b1beb5b,UKCIP – Adaptation Wizard tool,This is an online tool to help users with climate adaptation,"This online tool guides users through a 5-step process in assessing an organisation’s vulnerability to current climate and future climate change, identifying options to address key climate risks, and help user developing and implementing a climate change adaptation strategy. Targeted audiences: anyone looking for guidance on how to adapt to climate impacts. Prior knowledge about climate change will be useful but not necessary.","CLIMATE AND WEATHER Adaptation, CLIMATE AND WEATHER Impacts, CLIMATE AND WEATHER Risks","Climate Change Adaptation, Climate Change Vulnerability & Impact Assessment, Disaster Risk Management, Education & Training",Global,N/A,,"UK Climate Impacts Programme, UKCIP",,http://www.ukcip.org.uk/wizard/#.VjmTCCs32eJ,"UK Climate Impacts Programme, UKCIP",,http://www.ukcip.org.uk/wizard/#.VjmTCCs32eJ,2010,"Tool , Website",,Dewi Kirono,
3282630a-292a-11e6-b321-a0999b1beb5b,Climate change impact and risk management - A guide for business and government,This document outlines a framework for managing climate change into organisations,"This guidance provides a framework for managing the increased risk to organisations due to climate change impacts, with a prime focus on the initial assessment and prioritisation of these risks.  The aims are to help businesses and organisations adapting to climate change through:• examining risks related to climate change impacts• prioritising risks that require further attention• establishing a process for ensuring that these higher priority risks are managed effectively.The guide is consistent with the Australian and New Zealand Standard for Risk Management, AS/NZS 4360:2004, which is widely used in the public and private sectors to guide strategic, operational and other forms of risk management.Targeted audience: elected representatives, directors and general management of an organisation; specialist risk managers or external risk experts","CLIMATE AND WEATHER Impacts, CLIMATE AND WEATHER Risks, CLIMATE AND WEATHER Vulnerability, CLIMATE AND WEATHER Adaptation","Climate Change Vulnerability & Impact Assessment, Climate Change Adaptation, Disaster Risk Management, Business & Industry ","Global, Australia","[{
  ""place_id"": ""144209646"",
  ""licence"": ""Data © OpenStreetMap contributors, ODbL 1.0. http://www.openstreetmap.org/copyright"",
  ""osm_type"": ""relation"",
  ""osm_id"": ""80500"",
  ""boundingbox"": [
    ""-55.3228174"",
    ""-9.0882277"",
    ""72.2460938"",
    ""168.2249543""
  ],
  ""lat"": ""-24.7761085"",
  ""lon"": ""134.755"",
  ""display_name"": ""Australia"",
  ""class"": ""boundary"",
  ""type"": ""administrative"",
  ""importance"": 0.98778836459918,
  ""icon"": ""http://nominatim.openstreetmap.org/images/mapicons/poi_boundary_administrative.p.20.png"",
  ""address"": {
    ""country"": ""Australia"",
    ""country_code"": ""au""
  }
}]",,Commonwealth of Australia,,,,,http://www.environment.gov.au/system/files/resources/21c04298-db93-47a6-a6b0-eaaaae9ef8e4/files/risk-management.pdf,2006,Publication,pdf,Dewi Kirono,
328299f6-292a-11e6-a670-a0999b1beb5b,"Adaptation Policy Framework for Climate Change, Developing strategies, Policies and Measures",Guideline on policy framework on Climate Adaptation,"The APF provides guidance on designing and implementing projects that reduce vulnerability to climate change, by both reducing potential negative impacts and enhancing any beneficial consequences of a changing climate. This includes Guidance on how to assess current vulnerability and future climate risks.The intended primary use of the document is to guide studies, projects, planning and policy exercises toward the identification of appropriate adaptation strategies, policies and measures.","CLIMATE AND WEATHER Climate change science, CLIMATE AND WEATHER Adaptation, CLIMATE AND WEATHER Climate projections, CLIMATE AND WEATHER Mitigation, CLIMATE AND WEATHER Risks, CLIMATE AND WEATHER Vulnerability, CLIMATE AND WEATHER Resilience","Climate Change Adaptation, Climate Change Vulnerability & Impact Assessment, Disaster Risk Management, Education & Training",Global,N/A,,United Nation Development Programme (UNDP),,,,,http://unfccc.int/adaptation/nairobi_work_programme/knowledge_resources_and_publications/items/5501.php,2004,"Educational resource , Publication",pdf,Dewi Kirono,
3282d312-292a-11e6-8505-a0999b1beb5b,Guidelines for the Preparation of National Adaptation Programmes of Action (NAPA) ,Global guidance on Climate Adaptation at National level,"This document outlines some “guiding principles” for addressing current and urgent adaptation needs, especially those in the least developed countries (LDCs). The guideline does not provide a detailed framework to conduct Impacts, Vulnerability and Adaptation assessment per se. Instead, it focuses on the process of compiling a document that specifies priority adaptation actions in the LDCs.In the NAPA process, much of the work of assessing vulnerability and adaptation is intended to be built from existing sources.","CLIMATE AND WEATHER Climate change science, CLIMATE AND WEATHER Adaptation, CLIMATE AND WEATHER Climate projections, CLIMATE AND WEATHER Mitigation, CLIMATE AND WEATHER Risks, CLIMATE AND WEATHER Vulnerability, CLIMATE AND WEATHER Resilience","Climate Change Adaptation, Climate Change Vulnerability & Impact Assessment, Disaster Risk Management, Education & Training",Global,N/A,,UNDP,,,,,http://unfccc.int/adaptation/nairobi_work_programme/knowledge_resources_and_publications/items/5376.php,2002,"Publication, Educational resource ",pdf,Dewi Kirono,
328314ac-292a-11e6-b87c-a0999b1beb5b,UNEP Handbook on Methods for Climate Change Impact Assessment and Adaptation Strategies ,Global handbook on conducting research of climate change impacts and adaptation strategies,The handbook is designed to help those conducting research on the potential impacts of climate change on the environment and their society and economy. The document introduces a wide range of methods that can be used to design assessment studies of climate change impacts and related adaptation strategies.,"CLIMATE AND WEATHER Climate change science, CLIMATE AND WEATHER Adaptation, CLIMATE AND WEATHER Climate projections, CLIMATE AND WEATHER Mitigation, CLIMATE AND WEATHER Risks, CLIMATE AND WEATHER Vulnerability, CLIMATE AND WEATHER Resilience","Climate Change Adaptation, Climate Change Vulnerability & Impact Assessment, Disaster Risk Management, Education & Training",Global,N/A,,UNEP,,,,,http://www.ivm.vu.nl/en/Images/UNEPhandbookEBA2ED27-994E-4538-B0F0C424C6F619FE_tcm53-102683.pdf,1998,"Educational resource , Publication",pdf,Dewi Kirono,
328351de-292a-11e6-962e-a0999b1beb5b,IPCC Technical Guidelines for Assessing Climate Change Impact and Adaptation ,First generation of global guideline on climate impact and adaptation assessment,"This document is often regarded as the first generation Guideline on climate impact and adaptation assessment. It outlines a research framework consisting of seven-steps, as well as advices on communicating research results.The document will be most useful for those conducting research on climate change impacts and adaptation.","CLIMATE AND WEATHER Climate change science, CLIMATE AND WEATHER Adaptation, CLIMATE AND WEATHER Climate projections, CLIMATE AND WEATHER Mitigation, CLIMATE AND WEATHER Risks, CLIMATE AND WEATHER Vulnerability, CLIMATE AND WEATHER Resilience","Climate Change Adaptation, Climate Change Vulnerability & Impact Assessment, Disaster Risk Management, Education & Training",Global,N/A,,IPCC,,,,,http://www.ipcc-wg3.de/special-reports/.files-images/ipcc-technical-guidelines-1994n.pdf,1994,"Educational resource , Publication",pdf,Dewi Kirono,
32839074-292a-11e6-9977-a0999b1beb5b,Guidelines for Integrating Climate Change Adaptation into Fisheries and Aquaculture Projects ,Best practices in climate change adaptation and mitigation in the fisheries and aquaculture sectors,"This document synthesizes available knowledge and best practices in climate change adaptation and mitigation in the fisheries and aquaculture sectors with a view to guide interventions from the International Fund for Agricultural Development (IFAD) in these sectors.The document starts with a literature review on climate change, the fisheries and aquaculture sectors, and the relevant activities. Then, it identifies best practices in climate change adaptation and mitigation in the fisheries and aquaculture sectors. Finally, the document guides the integration of climate change adaptation and mitigation measures into IFAD interventions in the fisheries and aquaculture sectors, and enhance the quality of IFAD project design, implementation, supervision and evaluation processes, as well as engagement in policy dialogue. This includes a range of options for diagnosing and responding to climate threats to communities engaged in small-scale fisheries and aquaculture.","CLIMATE AND WEATHER Climate change science, CLIMATE AND WEATHER Adaptation, CLIMATE AND WEATHER Climate projections, CLIMATE AND WEATHER Mitigation, CLIMATE AND WEATHER Risks, CLIMATE AND WEATHER Vulnerability, CLIMATE AND WEATHER Resilience, FISHERIES Aquaculture","Climate Change Adaptation, Climate Change Vulnerability & Impact Assessment, Disaster Risk Management, Education & Training, Natural Resource Management & the Environment, Fisheries & Forestry",Global,N/A,,International Fund for Agricultural Development (IFAD),,,,,http://www.ifad.org/climate/asap/fisheries.pdf,2014,"Publication, Educational resource ",pdf,Dewi Kirono,
3283cef4-292a-11e6-a895-a0999b1beb5b,"Climate Change, Extreme Weather Events, and the Highway System Volume 2 Practitioner’s Guide and Research Report",Guideline for transportation professionals,"This guide was developed to help transportation professionals understand the changes in climate that may affect the future (and, in the case of extreme weather events, the current) transportation system and how assets and activities can be adapted to provide transportation system resiliency in the face of changing environmental conditions.The guide includes the steps that should be taken if transportation officials want to know what climate stresses the transportation system might face in the future; how vulnerable the system will likely be to these stresses; and what strategies can be considered to avoid, minimize, or mitigate potential consequences. How adaptation concerns can be incorporated into a typical transportation planning process is also described.The guide was developed for transportation practitioners in USA, but the guiding principle or the framework is applicable elsewhere.","CLIMATE AND WEATHER Extreme weather events, CLIMATE AND WEATHER Impacts, CLIMATE AND WEATHER Adaptation, CLIMATE AND WEATHER Risks, CLIMATE AND WEATHER Sea level rise, CLIMATE AND WEATHER Vulnerability, HAZARDS Flood, HAZARDS Severe local storms, HUMAN ENVIRONMENT Structures and Facilities, TRANSPORTATION Land","Climate Change Adaptation, Climate Change Vulnerability & Impact Assessment, Disaster Risk Management, Human Settlements & Infrastructure ",USA,"[
  {
    ""place_id"": ""143818058"",
    ""licence"": ""Data © OpenStreetMap contributors, ODbL 1.0. http://www.openstreetmap.org/copyright"",
    ""osm_type"": ""relation"",
    ""osm_id"": ""148838"",
    ""boundingbox"": [
      ""-14.7608357"",
      ""71.6048217"",
      ""-179.9999999"",
      ""180""
    ],
    ""lat"": ""39.7837304"",
    ""lon"": ""-100.4458824"",
    ""display_name"": ""United States of America"",
    ""class"": ""boundary"",
    ""type"": ""administrative"",
    ""importance"": 0.944692348398,
    ""icon"": ""http://nominatim.openstreetmap.org/images/mapicons/poi_boundary_administrative.p.20.png"",
    ""address"": {
      ""country"": ""United States of America"",
      ""country_code"": ""us""
    }
  }
]",,NATIONAL COOPERATIVE HIGHWAY RESEARCH PROGRAM (NCHRP),,,,,http://onlinepubs.trb.org/onlinepubs/nchrp/nchrp_rpt_750v2.pdf,2014,"Educational resource , Publication",pdf,Dewi Kirono,
3284113e-292a-11e6-98de-a0999b1beb5b,The Federal Highway Administration’s Climate Change & Extreme Weather Vulnerability Assessment Framework,A guide for transportation agencies interested in assessing their vulnerability to climate change and extreme weather events,"This is a guide for transportation agencies interested in assessing their vulnerability to climate change and extreme weather events. It gives an overview of key steps in conducting vulnerability assessments and uses in-practice examples to demonstrate a variety of ways to gather and process information. The framework is comprised of three key steps: defining study objectives and scope; assessing vulnerability; and incorporating results into decision making.Although the framework was intended for use by the USA agencies, the guiding principles are generic and hence can be applicable anywhere.","CLIMATE AND WEATHER Extreme weather events, CLIMATE AND WEATHER Impacts, CLIMATE AND WEATHER Adaptation, CLIMATE AND WEATHER Risks, CLIMATE AND WEATHER Sea level rise, CLIMATE AND WEATHER Vulnerability, HAZARDS Flood, HAZARDS Severe local storms, HUMAN ENVIRONMENT Structures and Facilities, TRANSPORTATION Land","Climate Change Adaptation, Climate Change Vulnerability & Impact Assessment, Disaster Risk Management, Human Settlements & Infrastructure ",USA,"[
  {
    ""place_id"": ""143818058"",
    ""licence"": ""Data © OpenStreetMap contributors, ODbL 1.0. http://www.openstreetmap.org/copyright"",
    ""osm_type"": ""relation"",
    ""osm_id"": ""148838"",
    ""boundingbox"": [
      ""-14.7608357"",
      ""71.6048217"",
      ""-179.9999999"",
      ""180""
    ],
    ""lat"": ""39.7837304"",
    ""lon"": ""-100.4458824"",
    ""display_name"": ""United States of America"",
    ""class"": ""boundary"",
    ""type"": ""administrative"",
    ""importance"": 0.944692348398,
    ""icon"": ""http://nominatim.openstreetmap.org/images/mapicons/poi_boundary_administrative.p.20.png"",
    ""address"": {
      ""country"": ""United States of America"",
      ""country_code"": ""us""
    }
  }
]",,"U.S. Department of Transportation, Federal Highway Administration (FHWA)",,,,,http://www.fhwa.dot.gov/environment/climate_change/adaptation/publications_and_tools/vulnerability_assessment_framework/fhwahep13005.pdf,2012,"Educational resource , Publication",pdf,Dewi Kirono,
328448fa-292a-11e6-8fe2-a0999b1beb5b,"Protecting Health from Climate Change, Vulnerability and Adaptation Assessment",A guidance on how to conduct a national or sub-national assessment of current and future vulnerability to the health risks of climate change,"This document outlines a basic and flexible guidance on how to conduct a national or sub-national assessment of current and future vulnerability to the health risks of climate change. This includes policies and programmes that could increase resilience, taking into account the multiple determinants of climate-sensitive health outcomes.The steps may be implemented in the order presented, or only selected steps may be undertaken to meet the needs of the population being considered. For example, an assessment might focus on identifying populations and regions vulnerable to current and possible future changes in the geographical range of climate-sensitive infectious diseases. The assessment could be quantitative or qualitative or a mixture of both, and this guidance focuses on the qualitative approaches.","CLIMATE AND WEATHER Extreme weather events, CLIMATE AND WEATHER Impacts, CLIMATE AND WEATHER Adaptation, CLIMATE AND WEATHER Risks, CLIMATE AND WEATHER Vulnerability","Climate Change Adaptation, Climate Change Vulnerability & Impact Assessment, Disaster Risk Management, Education & Training, Health & Social Development",Global,N/A,,World Health Organisation (WHO),,,,,http://www.who.int/globalchange/publications/vulnerability-adaptation/en/,2013,"Educational resource , Publication",pdf,Dewi Kirono,
32848038-292a-11e6-a798-a0999b1beb5b,"Integrating disaster risk management into climate change adaptation, Disaster Risk managmenet Practitioner's handbook series",A guide to integrate disaster risk management (DRM) with climate change adaptation (CCA),"This handbook promotes the adoption of a risk management approach to climate-sensitive decision-making and serves as a reference to integrate disaster risk management (DRM) with climate change adaptation (CCA). It guides the reader on how to contribute to CCA by improving the management of climate extremes.The guidance aims to:• promote the importance of DRM as a starting point for adaptation;• supply the practitioner with sound arguments to be used as they advocate the integration of DRM;• identify approaches, strategies, tools and activities for comprehensive integration of DRM into the designated adaptation processes; and• demonstrate the fundamental concept of integration so that the DRM practitioner can apply it wherever the need arises.Targeted audience DRM practitioners who sit within the National Disaster Management Agency; or line agencies and local governments and have the designated responsibility for DRM. ","CLIMATE AND WEATHER Adaptation, CLIMATE AND WEATHER Impacts, CLIMATE AND WEATHER Risks, HAZARDS Cyclones, HAZARDS Drought, HAZARDS Flood, HAZARDS Severe local storms","Climate Change Adaptation, Climate Change Vulnerability & Impact Assessment, Disaster Risk Management, Education & Training",Asia,"[
  {
    ""place_id"": ""205429"",
    ""licence"": ""Data © OpenStreetMap contributors, ODbL 1.0. http://www.openstreetmap.org/copyright"",
    ""osm_type"": ""node"",
    ""osm_id"": ""36966065"",
    ""boundingbox"": [
      ""55.9999502"",
      ""56.0000502"",
      ""103.9999498"",
      ""104.0000498""
    ],
    ""lat"": ""56.0000002"",
    ""lon"": ""103.9999998"",
    ""display_name"": ""Asia"",
    ""class"": ""place"",
    ""type"": ""continent"",
    ""importance"": 0.90099118250731,
    ""address"": {
      ""continent"": ""Asia""
    }
  }
]",,Asian Disaster Preparedness Center (ADPC),,,,,http://www.adpc.net/igo/contents/Publications/publications-Details.asp?pid=408&t=How%202%20empty%20buckets%20can%20save%20a%20life:%20Bangladesh%20emergency%20response%20%3Cbr%3E%20course%20goes%20local#sthash.pNtUPN4q.dpbs,2013,"Educational resource , Publication",pdf,Dewi Kirono,
3284b7a6-292a-11e6-999e-a0999b1beb5b,Climate Change Adaptation Guidelines in Coastal Management and Planning,Framework for coastal manager to identify climate impats and adaptation,"This guide provides a simplified and structured framework to assist the coastal manager considering physical intervention options both under present day conditions and with climate change. This includes identifying the key issues (coastal values and hazards) and understanding the relevance of local coastal processes and how the coast may respond during extreme events now and into the future with and without intervention.Most importantly the guideline assists with identification of the suitability and possible adverse impacts that may arise from particular physical works or adaptation strategies. Incorrect decisions have the potential to change the existing coast for many decades and at locations many kilometres from the site under consideration. The cost of rectifying or managing these impacts can far exceed the immediate benefits from the decision.Targeted audiences are coastal managers, decision makers and elected representatives in various levels of government and interested community stakeholders in Australia, but its guiding principle is applicable elsewhere. While some readers may have training in coastal management, coastal engineering, planning and environmental sciences, it is assumed that many readers will have no formal training and limited experience in any of these areas. Readers faced with decisions regarding adaptation options should be prepared to seek expert technical advice from appropriately qualified coastal engineers and other relevant professionals.","CLIMATE AND WEATHER Adaptation, CLIMATE AND WEATHER Impacts, CLIMATE AND WEATHER Risks, HAZARDS Cyclones, HAZARDS Drought, HAZARDS Flood, HAZARDS Severe local storms, CLIMATE AND WEATHER Sea level rise, HAZARDS Tsunamis, MARINE Coasts","Climate Change Adaptation, Climate Change Vulnerability & Impact Assessment, Disaster Risk Management, Education & Training, Human Settlements & Infrastructure ",Australia,"[
  {
    ""place_id"": ""144209646"",
    ""licence"": ""Data © OpenStreetMap contributors, ODbL 1.0. http://www.openstreetmap.org/copyright"",
    ""osm_type"": ""relation"",
    ""osm_id"": ""80500"",
    ""boundingbox"": [
      ""-55.3228174"",
      ""-9.0882277"",
      ""72.2460938"",
      ""168.2249543""
    ],
    ""lat"": ""-24.7761085"",
    ""lon"": ""134.755"",
    ""display_name"": ""Australia"",
    ""class"": ""boundary"",
    ""type"": ""administrative"",
    ""importance"": 0.98778836459918,
    ""icon"": ""http://nominatim.openstreetmap.org/images/mapicons/poi_boundary_administrative.p.20.png"",
    ""address"": {
      ""country"": ""Australia"",
      ""country_code"": ""au""
    }
  }
]",,Engineers Australia’s National Committee on Coastal and Ocean Engineering (NCCOE),,,,,https://www.engineersaustralia.org.au/sites/default/files/shado/Learned%20Groups/National%20Committees%20and%20Panels/Coastal%20and%20Ocean%20Engineering/climate_change_adaptation_guidelines.pdf,2012,"Educational resource , Publication",pdf,Dewi Kirono,
3284f130-292a-11e6-91c6-a0999b1beb5b,Adapting to Climate Change: A Planning Guide for State Coastal Managers,A guide for coastal managers developing and implementing adaptation plans to reduce the impacts and consequences of climate change and climate variability (climate change),"This guide is to help U.S. state and territorial (state) coastal managers develop and implement adaptation plans to reduce the impacts and consequences of climate change and climate variability (climate change) in their purview. It is intended as an aid, not as a prescriptive directive, and a state may choose to use individual steps or chapters or the entire guide, depending on where they are in their planning process.The guiding principle is applicable elsewhere.","CLIMATE AND WEATHER Adaptation, CLIMATE AND WEATHER Impacts, CLIMATE AND WEATHER Risks, HAZARDS Cyclones, HAZARDS Drought, HAZARDS Flood, HAZARDS Severe local storms, CLIMATE AND WEATHER Sea level rise, HAZARDS Tsunamis, MARINE Coasts","Climate Change Adaptation, Climate Change Vulnerability & Impact Assessment, Disaster Risk Management, Education & Training, Human Settlements & Infrastructure ",USA,"[
  {
    ""place_id"": ""143818058"",
    ""licence"": ""Data © OpenStreetMap contributors, ODbL 1.0. http://www.openstreetmap.org/copyright"",
    ""osm_type"": ""relation"",
    ""osm_id"": ""148838"",
    ""boundingbox"": [
      ""-14.7608357"",
      ""71.6048217"",
      ""-179.9999999"",
      ""180""
    ],
    ""lat"": ""39.7837304"",
    ""lon"": ""-100.4458824"",
    ""display_name"": ""United States of America"",
    ""class"": ""boundary"",
    ""type"": ""administrative"",
    ""importance"": 0.944692348398,
    ""icon"": ""http://nominatim.openstreetmap.org/images/mapicons/poi_boundary_administrative.p.20.png"",
    ""address"": {
      ""country"": ""United States of America"",
      ""country_code"": ""us""
    }
  }
]",,National Oceanic and Atmospheric Administration (NOAA),,,,,http://coastalmanagement.noaa.gov/climate/adaptation.html,2010,"Educational resource , Publication",pdf,Dewi Kirono,
32852774-292a-11e6-8c72-a0999b1beb5b,"Scanning the Conservation Horizon, a Guide to Climate Change Vulnerability Assessment ",A guide for conservation and resource professional on climate vulnerability,"This book is designed to assist fish and wildlife managers and other conservation and resource professional to better plan, execute, and interpret climate change vulnerability assessments. The practical examples of the framework are demonstrated using seven case studies which vary in scope and complexity.","CLIMATE AND WEATHER Adaptation, CLIMATE AND WEATHER Impacts, CLIMATE AND WEATHER Risks, HAZARDS Cyclones, HAZARDS Drought, HAZARDS Flood, HAZARDS Severe local storms, CLIMATE AND WEATHER Sea level rise, HAZARDS Tsunamis, MARINE Coasts, ECOLOGY Habitat, ECOLOGY Ecosystem, FLORA Native, FAUNA Native, WATER Wetlands","Climate Change Adaptation, Climate Change Vulnerability & Impact Assessment, Disaster Risk Management, Education & Training",USA,"[
  {
    ""place_id"": ""143818058"",
    ""licence"": ""Data © OpenStreetMap contributors, ODbL 1.0. http://www.openstreetmap.org/copyright"",
    ""osm_type"": ""relation"",
    ""osm_id"": ""148838"",
    ""boundingbox"": [
      ""-14.7608357"",
      ""71.6048217"",
      ""-179.9999999"",
      ""180""
    ],
    ""lat"": ""39.7837304"",
    ""lon"": ""-100.4458824"",
    ""display_name"": ""United States of America"",
    ""class"": ""boundary"",
    ""type"": ""administrative"",
    ""importance"": 0.944692348398,
    ""icon"": ""http://nominatim.openstreetmap.org/images/mapicons/poi_boundary_administrative.p.20.png"",
    ""address"": {
      ""country"": ""United States of America"",
      ""country_code"": ""us""
    }
  }
]",,US National Wildlife Association,,,,,http://www.nwf.org/vulnerabilityguide,2011,"Educational resource , Publication",pdf,Dewi Kirono,
32855c7e-292a-11e6-a904-a0999b1beb5b,"Handbook on Climate Change Adaptation in the Water Sector, a Resilient Approach that Integrates Water Management and Community Development ",Approach to formulating and implementing water sector projects for climate change adaptation.,"This handbook describes an approach to formulating and implementing water sector projects for climate change adaptation.The handbook mainly covers flooding, for which conventional measures are increasingly found to be inadequate and on which knowledge is being accumulated. However, water resources management, water environments, sediment, and coasts are also included.","CLIMATE AND WEATHER Climate change science, CLIMATE AND WEATHER Extreme weather events, CLIMATE AND WEATHER Rainfall, CLIMATE AND WEATHER Adaptation, CLIMATE AND WEATHER Risks, CLIMATE AND WEATHER Vulnerability, HAZARDS Flood, WATER Hydrology, WATER Surface","Climate Change Adaptation, Climate Change Vulnerability & Impact Assessment, Disaster Risk Management, Education & Training, Human Settlements & Infrastructure ",Japan,"[
  {
    ""place_id"": ""144367473"",
    ""licence"": ""Data © OpenStreetMap contributors, ODbL 1.0. http://www.openstreetmap.org/copyright"",
    ""osm_type"": ""relation"",
    ""osm_id"": ""382313"",
    ""boundingbox"": [
      ""20.2145811"",
      ""45.7112046"",
      ""122.7141754"",
      ""154.205541""
    ],
    ""lat"": ""36.5748441"",
    ""lon"": ""139.2394179"",
    ""display_name"": ""Japan"",
    ""class"": ""boundary"",
    ""type"": ""administrative"",
    ""importance"": 1.0167092239987,
    ""icon"": ""http://nominatim.openstreetmap.org/images/mapicons/poi_boundary_administrative.p.20.png"",
    ""address"": {
      ""country"": ""Japan"",
      ""country_code"": ""jp""
    }
  }
]",,Japan International Cooperation Agency,,,,,http://www.jica.go.jp/english/our_work/thematic_issues/water/pdf/guideline_02.pdf,2010,"Educational resource , Publication",pdf,Dewi Kirono,
328590d4-292a-11e6-af26-a0999b1beb5b,Guidance on Water and Adaptation to Climate Change ,Guidance for decision makers on the challenges caused by climate change to water management and water-related activities and thereby to develop adaptation strategies,"This Guidance aims to support decision makers from the local to the transboundary and international level by offering advice on the challenges caused by climate change to water management and water-related activities and thereby to develop adaptation strategies. It builds on the concept of Integrated Water Resource Management (IWRM), which many countries are in the process of implementing. Climate change adds to the complexity of its implementation. The Guidance addresses the additional challenges of climate change but does not address IWRM as a whole. The Guidance aims to put special emphasis on the specific problems and requirements of transboundary basins, with the objective of preventing, controlling and reducing transboundary impacts of national adaptation measures and thereby preventing and resolving possible conflicts related to the impact of climate change on water resources.The Guidance is a general strategic roadmap towards adaptation of water management to climate change but needs to be tailored to specific local situations. Therefore it does not provide a detailed overview of all possible measures or elements of an adaptation.","CLIMATE AND WEATHER Climate change science, CLIMATE AND WEATHER Adaptation, CLIMATE AND WEATHER Impacts, CLIMATE AND WEATHER Vulnerability, CLIMATE AND WEATHER Risks, WATER Rivers, WATER Supply, WATER Surface","Climate Change Adaptation, Climate Change Vulnerability & Impact Assessment, Disaster Risk Management, Education & Training, Human Settlements & Infrastructure ",Global,N/A,,United Nation (UN),,,,,http://www.unece.org/fileadmin/DAM/env/water/publications/documents/Guidance_water_climate.pdf,2009,"Educational resource , Publication",pdf,Dewi Kirono,
3285c858-292a-11e6-afc7-a0999b1beb5b,"Mapping Climate Change Vulnerability and Impact Scenarios, A Guidebook for Sub-National Planners ",A guidebook for sub-national planners identifying and mapping current and future vulnerability to long-term climate change,"This Guidebook aims to help sub-national planners identify and map current and future vulnerability to long-term climate change. It presents the various sequential stages that are required to identify hazards and perturbations, sensitivity and adaptive capacity in a given place – which interact to make up location-specific vulnerability. Different stages in the process are accompanied by suggestions of sources of further information on how to implement the guidance provided, and advice on various stakeholders to consult.Targeted audience: planners working at the sub-national level. The audience may have little or no prior knowledge of climate change, but needs to understand how to identify and map the nature of current and future vulnerability to long-term climate change so that appropriate policies and interventions can be designed and implemented.","CLIMATE AND WEATHER Adaptation, CLIMATE AND WEATHER Impacts, CLIMATE AND WEATHER Resilience, CLIMATE AND WEATHER Risks, CLIMATE AND WEATHER Vulnerability","Climate Change Adaptation, Climate Change Vulnerability & Impact Assessment, Education & Training",Global,N/A,,United Nation Development Programme (UNDP),,,,,https://www.undp-aap.org/resources/publications/mapping-climate-change-vulnerability-and-impact-scenarios,2010,"Educational resource , Publication",pdf,Dewi Kirono,
32860886-292a-11e6-bbae-a0999b1beb5b,Mainstreaming Adaptation to Climate Change in Agriculture and Natural Resources Management Projects – Guidance Notes Series ,"guidance notes that each provides lessons learned, best practices, recommendations, and useful resources for integrating climate risk management and adaptation to climate change in development projects","This series, produced by the World Bank, presents eight guidance notes that each provides lessons learned, best practices, recommendations, and useful resources for integrating climate risk management and adaptation to climate change in development projects, with a focus on the agriculture and natural resources management sectors. They are organized around a typical project cycle, starting from project identification, followed by project preparation, implementation, monitoring and evaluation. Each note focuses on specific technical, institutional, economic, or social aspects of adaptation.Guidance Notes 3, in particular, provides practical advice on assessing climate risk.","CLIMATE AND WEATHER Adaptation, CLIMATE AND WEATHER Impacts, CLIMATE AND WEATHER Risks, CLIMATE AND WEATHER Vulnerability","Climate Change Adaptation, Climate Change Vulnerability & Impact Assessment, Disaster Risk Management, Natural Resource Management & the Environment",Global,N/A,,World Bank (WB),,,,,"http://siteresources.worldbank.org/EXTTOOLKIT3/Resources/3646250-1250715327143/GN1.pdfhttp://siteresources.worldbank.org/EXTTOOLKIT3/Resources/3646250-1250715327143/GN2.pdfhttp://siteresources.worldbank.org/EXTTOOLKIT3/Resources/3646250-1250715327143/GN3.pdfhttp://siteresources.worldbank.org/EXTTOOLKIT3/Resources/3646250-1250715327143/GN4.pdfhttp://siteresources.worldbank.org/EXTTOOLKIT3/Resources/3646250-1250715327143/GN5.pdfhttp://siteresources.worldbank.org/EXTTOOLKIT3/Resources/3646250-1250715327143/GN6.pdfhttp://siteresources.worldbank.org/EXTTOOLKIT3/Resources/3646250-1250715327143/GN7.pdfhttp://siteresources.worldbank.org/EXTTOOLKIT3/Resources/3646250-1250715327143/GN8.pdf",2010,"Educational resource , Publication",pdf,Dewi Kirono,
3286466e-292a-11e6-8725-a0999b1beb5b,Adapting To Climate Variability and Change A Guidance Manual for Development Planning ,Guidance for USAID missions and other partners to understand how climate change may affect their project outcomes and identify adaptation options to integrate into the design for more resilient projects,"The USAID Global Climate Change Team developed this Adaptation Guidance Manual to assist Missions and other partners to understand how climate change may affect their project outcomes and identify adaptation options to integrate into the design for more resilient projects.The manual is suitable for planners and stakeholders who wish to cope with a changing climate.The six-step approach for assessing vulnerability and identifying and implementing climate change adaptations (the V&A approach) follows a developmental path parallel to the more general project cycle.","CLIMATE AND WEATHER Adaptation, CLIMATE AND WEATHER Impacts, CLIMATE AND WEATHER Risks, CLIMATE AND WEATHER Vulnerability","Climate Change Adaptation, Climate Change Vulnerability & Impact Assessment",USA,"[
  {
    ""place_id"": ""143818058"",
    ""licence"": ""Data © OpenStreetMap contributors, ODbL 1.0. http://www.openstreetmap.org/copyright"",
    ""osm_type"": ""relation"",
    ""osm_id"": ""148838"",
    ""boundingbox"": [
      ""-14.7608357"",
      ""71.6048217"",
      ""-179.9999999"",
      ""180""
    ],
    ""lat"": ""39.7837304"",
    ""lon"": ""-100.4458824"",
    ""display_name"": ""United States of America"",
    ""class"": ""boundary"",
    ""type"": ""administrative"",
    ""importance"": 0.944692348398,
    ""icon"": ""http://nominatim.openstreetmap.org/images/mapicons/poi_boundary_administrative.p.20.png"",
    ""address"": {
      ""country"": ""United States of America"",
      ""country_code"": ""us""
    }
  }
]",,United States Agency for International Development (USAID),,,,,https://www.usaid.gov/climate/adaptation-guide,2007,"Educational resource , Publication",pdf,Dewi Kirono,
32867ea6-292a-11e6-81eb-a0999b1beb5b,"Vulnerability Assessments, Experiences of GIZ with Vulnerability Assessments at the local level ",Factsheet describing practical experiences with vulnerability assessments (VAs) conducted at local level through GIZ projects,"This document is a factsheet that describes practical experiences with vulnerability assessments (VAs) conducted at local level through GIZ projects. It starts with an explanation on the general concept of vulnerability assessments and different methodological approaches. Then it provides an overview of examples of different VAs conducted within GIZ. Finally, the document illustrates these examples in detail, including their context, steps and results.","CLIMATE AND WEATHER Adaptation, CLIMATE AND WEATHER Impacts, CLIMATE AND WEATHER Risks, CLIMATE AND WEATHER Vulnerability","Climate Change Adaptation, Climate Change Vulnerability & Impact Assessment",Germany,"[
  {
    ""place_id"": ""141876346"",
    ""licence"": ""Data © OpenStreetMap contributors, ODbL 1.0. http://www.openstreetmap.org/copyright"",
    ""osm_type"": ""relation"",
    ""osm_id"": ""51477"",
    ""boundingbox"": [
      ""47.2701114"",
      ""55.099161"",
      ""5.8663153"",
      ""15.0419319""
    ],
    ""lat"": ""51.0834196"",
    ""lon"": ""10.4234469"",
    ""display_name"": ""Germany, Europe"",
    ""class"": ""boundary"",
    ""type"": ""administrative"",
    ""importance"": 1.0406411269346,
    ""icon"": ""http://nominatim.openstreetmap.org/images/mapicons/poi_boundary_administrative.p.20.png"",
    ""address"": {
      ""country"": ""Germany"",
      ""country_code"": ""de"",
      ""continent"": ""Europe""
    }
  }
]",,GIZ,,,,,https://gc21.giz.de/ibt/var/app/wp342deP/1443/wp-content/uploads/filebase/va/vulnerability-guides-manuals-reports/giz-2013-en-vulnerability-assessment.pdf,2013,"Educational resource , Publication",pdf,Dewi Kirono,
3286b3a8-292a-11e6-b827-a0999b1beb5b,Climate Change Adaptation for Coral Triangle Communities: A Guide for Vulnerability Assessment and Local Early Action Planning (LEAP Guide) ,Guidance for local governments and communities to assess their vulnerability to climate change and develop their own local action plans to address these,"The Guide to Vulnerability Assessment and Local Early Action Planning (LEAP) was developed as a companion document to assist local governments and communities to assess their vulnerability to climate change and develop their own local action plans to address these. The Guide is organized into four major steps especially to support the integration of planned adaptation within the context of existing development objectives and plans and ongoing projects and programs.Intended users include national and local governments, marine and coastal managers, disaster managers, and community development practitioners who work with coastal communities on a wide range of development issues such as food security, health, biodiversity conservation, and economic development.","CLIMATE AND WEATHER Adaptation, CLIMATE AND WEATHER Impacts, CLIMATE AND WEATHER Risks, CLIMATE AND WEATHER Vulnerability, ECOLOGY Ecosystem, ECOLOGY Habitat","Climate Change Adaptation, Climate Change Vulnerability & Impact Assessment","Global, Coral Triangle Region",N/A,,US Coral Triangle Initiative (US - CTI),,,,,http://www.coraltriangleinitiative.org/library/guidebook-climate-change-adaptation-coral-triangle-communities-guide-vulnerability,2013,"Educational resource , Publication",pdf,Dewi Kirono,
3286e99a-292a-11e6-8ff2-a0999b1beb5b,Framework for Community-Based Climate Vulnerability and Capacity Assessment in Mountain Areas,"Framework and methodology for assessing environmental and socioeconomic changes affecting the livelihoods of rural, natural resource dependent communities living in mountainous environments","This document describes an analytical framework and methodology for assessing environmental and socioeconomic changes affecting the livelihoods of rural, natural resource dependent communities living in mountainous environments. It also gives guidance on how to gain a better understanding of the various forces which shape mountain communities’ vulnerabilities, and places a special focus on the capacities inherent to these communities for coping with and adapting to environmental and socioeconomic changes. The framework is intended primarily for development practitioners and institutions working on climate change vulnerability and adaptation in mountainous environments.","CLIMATE AND WEATHER Adaptation, CLIMATE AND WEATHER Impacts, CLIMATE AND WEATHER Risks, CLIMATE AND WEATHER Vulnerability, ECOLOGY Community","Climate Change Adaptation, Climate Change Vulnerability & Impact Assessment",Nepal,"[
  {
    ""place_id"": ""143951944"",
    ""licence"": ""Data © OpenStreetMap contributors, ODbL 1.0. http://www.openstreetmap.org/copyright"",
    ""osm_type"": ""relation"",
    ""osm_id"": ""184633"",
    ""boundingbox"": [
      ""26.3477172"",
      ""30.446945"",
      ""80.0586226"",
      ""88.2015257""
    ],
    ""lat"": ""28.1082107"",
    ""lon"": ""84.0917515"",
    ""display_name"": ""Nepal"",
    ""class"": ""boundary"",
    ""type"": ""administrative"",
    ""importance"": 0.83817807738039,
    ""icon"": ""http://nominatim.openstreetmap.org/images/mapicons/poi_boundary_administrative.p.20.png"",
    ""address"": {
      ""country"": ""Nepal"",
      ""country_code"": ""np""
    }
  }
]",,International Centre for Integrated Mountain Development (ICIMOD),,,,,http://lib.icimod.org/record/8096,2011,"Educational resource , Publication",pdf,Dewi Kirono,
32871e06-292a-11e6-bd62-a0999b1beb5b,"Community-Based Climate Vulnerability Assessment and Adaptation Planning, A Cook Islands Pilot Project ",An insight on how climate change adaptation may be strengthened and accelerated through community-based risk assessment and participatory planning,"This Asian Development Bank (ADB) document aims to provide insights into how climate change adaptation may be strengthened and accelerated through community-based risk assessment and participatory planning. It shows how community-based risk assessment and participatory planning can be implemented by describing the process, tools, and lessons from this particular project. The process and tools used in the project were specifically designed in consultation with the communities, local experts, relevant government agencies, and other development organizations to ensure that the communities will have the necessary capacity to analyze climate risk and decide on adaptation strategies. ","CLIMATE AND WEATHER Adaptation, CLIMATE AND WEATHER Impacts, CLIMATE AND WEATHER Risks, CLIMATE AND WEATHER Vulnerability","Climate Change Adaptation, Climate Change Vulnerability & Impact Assessment",Cook islands,"[
  {
    ""place_id"": ""144562088"",
    ""licence"": ""Data © OpenStreetMap contributors, ODbL 1.0. http://www.openstreetmap.org/copyright"",
    ""osm_type"": ""relation"",
    ""osm_id"": ""2184233"",
    ""boundingbox"": [
      ""-22.1580699"",
      ""-8.7168791"",
      ""-166.0856467"",
      ""-157.1154965""
    ],
    ""lat"": ""-16.049278"",
    ""lon"": ""-160.355485"",
    ""display_name"": ""Cook Islands"",
    ""class"": ""boundary"",
    ""type"": ""administrative"",
    ""importance"": 0.78172748417765,
    ""icon"": ""http://nominatim.openstreetmap.org/images/mapicons/poi_boundary_administrative.p.20.png"",
    ""address"": {
      ""country"": ""Cook Islands"",
      ""country_code"": ""ck""
    }
  }
]",,Asian Development Bank (ADB),,,,,http://www.adb.org/publications/community-based-climate-vulnerability-assessment-and-adaptation-planning-cook-islands,2011,"Educational resource , Publication",pdf,Dewi Kirono,
32875338-292a-11e6-aa24-a0999b1beb5b,Guidelines for Climate Change Risk and Adaptation Assessment and for Mainstreaming into Policy,Guideline on conducting climate risk assessment and mainstreaming the information into policy making at regional and national levels in Indonesia,"This guideline outlines the procedure to conduct climate risk assessment and to mainstream the information into policy making at regional and national levels in Indonesia. Mainstreaming climate risk and adaptation into development policies is through either the preparation of the local mid-term development plan (RPJM) or the integration of the annual sectoral plans. This guideline is also intended to be the primary source for developing norms and standard procedure (NSPK) to conduct climate assessment for Strategic Environmental Assessment (KLHS) in Indonesia. The Law No 32 of 2009 on Environmental Protection and Management states that the mitigation and adaptation to climate change become a factor that must be considered and integrated in planning and policy instruments. Two policy instruments related to adaptation to climate change are the Environmental Management and Protection Plan (RPPLH) and the Strategic Environmental Assessment (KLHS). The RPPLH provides the basis for a Medium-term Development Plan formulation, while the KLHS is an obligatory activity for any policy, plan, or program.","CLIMATE AND WEATHER Adaptation, CLIMATE AND WEATHER Impacts, CLIMATE AND WEATHER Risks, CLIMATE AND WEATHER Vulnerability","Climate Change Adaptation, Climate Change Vulnerability & Impact Assessment",Indonesia,"[
  {
    ""place_id"": ""144301922"",
    ""licence"": ""Data © OpenStreetMap contributors, ODbL 1.0. http://www.openstreetmap.org/copyright"",
    ""osm_type"": ""relation"",
    ""osm_id"": ""304751"",
    ""boundingbox"": [
      ""-11.2085668"",
      ""6.2744496"",
      ""94.7717124"",
      ""141.0194444""
    ],
    ""lat"": ""-4.7993355"",
    ""lon"": ""114.5632032"",
    ""display_name"": ""Indonesia"",
    ""class"": ""boundary"",
    ""type"": ""administrative"",
    ""importance"": 0.93754990961972,
    ""icon"": ""http://nominatim.openstreetmap.org/images/mapicons/poi_boundary_administrative.p.20.png"",
    ""address"": {
      ""country"": ""Indonesia"",
      ""country_code"": ""id""
    }
  }
]",,Ministry of Environment,,,,,https://gc21.giz.de/ibt/var/app/wp342deP/1443/wp-content/uploads/filebase/climateinformation/ci-method-briefs/Guidelines_for_Risk_and_Adaptation_Assessment.pdf,2012,"Educational resource , Publication",pdf,Dewi Kirono,
32879246-292a-11e6-94ae-a0999b1beb5b,Compendium of Climate Change Vulnerability and Impact Assessment (VIA) Tools ,An inventory of VIA tools that may be used by the local governments in the Philippines,"Published by the Philippine Climate Change Commission, this document is an inventory of VIA tools that may be used by the local governments in the Philippines.The inventory is presented in such a way to meet the requirement of the global project on the Inventory of Methods for Adaptation to Climate Change (IMACC). This includes description about the approach, the method, and the tool. Also, the conditions for their application as well as the challenges, lessons learned, and recommendations for future application.","CLIMATE AND WEATHER Adaptation, CLIMATE AND WEATHER Impacts, CLIMATE AND WEATHER Risks, CLIMATE AND WEATHER Vulnerability","Climate Change Adaptation, Climate Change Vulnerability & Impact Assessment",Philippine,"[{
 ""place_id"": ""144914679"",
 ""licence"": ""Data © OpenStreetMap contributors, ODbL 1.0. http:\/\/www.openstreetmap.org\/copyright"",
 ""osm_type"": ""relation"",
 ""osm_id"": ""443174"",
 ""boundingbox"": [""4.2158064"",
 ""21.3217806"",
 ""114.0783252"",
 ""126.8072562""],
 ""lat"": ""12.7503486"",
 ""lon"": ""122.7312101"",
 ""display_name"": ""Philippines"",
 ""class"": ""boundary"",
 ""type"": ""administrative"",
 ""importance"": 0.90571487783214,
 ""icon"": ""http:\/\/nominatim.openstreetmap.org\/images\/mapicons\/poi_boundary_administrative.p.20.png"",
 ""address"": {
  ""country"": ""Philippines"",
  ""country_code"": ""ph""
 }
}]",,Philippine Climate Change Commission ,,,,,https://gc21.giz.de/ibt/var/app/wp342deP/1443/index.php/knowledge/vulnerability-assessment/examples/philippines-compendium-of-cc-vulnerability-and-impact-assessment-tools/,2013,"Educational resource , Publication",pdf,Dewi Kirono,
3287c658-292a-11e6-8c26-a0999b1beb5b,"Supplementary Design Manual for Irrigation Projects with Climate Change Consideration, Volume 1, Hydrologic Design Manual",A technical guidance showing application of climate change data in the hydrologic design of irrigation and other agriculture related infrastructure projects in the Philippine,"This document aims to guide the application of climate change data in the hydrologic design of irrigation and other agriculture related infrastructure projects in the Philippine. The document is published by the Philippine Climate Change Adaptation Project (PhilCCAP).The document includes a discussion on the basic concept, a step-by-step explanation of the computation and a simple work example to guide the users in the application of the method.The intended users are engineers with basic knowledge of hydrology and water resources evaluation","CLIMATE AND WEATHER Climate projections, CLIMATE AND WEATHER Impacts, WATER Surface",Climate Change Vulnerability & Impact Assessment,Philippine,"[{
 ""place_id"": ""144914679"",
 ""licence"": ""Data © OpenStreetMap contributors, ODbL 1.0. http:\/\/www.openstreetmap.org\/copyright"",
 ""osm_type"": ""relation"",
 ""osm_id"": ""443174"",
 ""boundingbox"": [""4.2158064"",
 ""21.3217806"",
 ""114.0783252"",
 ""126.8072562""],
 ""lat"": ""12.7503486"",
 ""lon"": ""122.7312101"",
 ""display_name"": ""Philippines"",
 ""class"": ""boundary"",
 ""type"": ""administrative"",
 ""importance"": 0.90571487783214,
 ""icon"": ""http:\/\/nominatim.openstreetmap.org\/images\/mapicons\/poi_boundary_administrative.p.20.png"",
 ""address"": {
  ""country"": ""Philippines"",
  ""country_code"": ""ph""
 }
}]",,,Philippine Climate Change Adaptation Project (PhilCCAP),,PhilCCAP,Rolando M. Maloles (PhilCCAP Consultant/Hydrologist),,2013,"Educational resource , Publication",pdf,Dewi Kirono,
3287ff4a-292a-11e6-8aff-a0999b1beb5b,"Adaptation toolkit, Guidebook for Researchers and Adaptation Practitioners Working with Local Communities ",Examples of tools for conducting Vulnerability and Adaptation assessment in Africa,"This document provides examples of tools for conducting Vulnerability and Adaptation assessment in Africa. The tools are those specifically for informing adaptation choices at the community level in developing countries.Targeted audiences include researchers and adaptation practitioners. ","CLIMATE AND WEATHER Adaptation, CLIMATE AND WEATHER Vulnerability","Climate Change Adaptation, Climate Change Vulnerability & Impact Assessment",Africa,"[
  {
    ""place_id"": ""217468"",
    ""licence"": ""Data © OpenStreetMap contributors, ODbL 1.0. http://www.openstreetmap.org/copyright"",
    ""osm_type"": ""node"",
    ""osm_id"": ""36966057"",
    ""boundingbox"": [
      ""1.9999503"",
      ""2.0000503"",
      ""15.9999497"",
      ""16.0000497""
    ],
    ""lat"": ""2.0000003"",
    ""lon"": ""15.9999997"",
    ""display_name"": ""Africa"",
    ""class"": ""place"",
    ""type"": ""continent"",
    ""importance"": 0.93642029859355,
    ""address"": {
      ""continent"": ""Africa""
    }
  }
]",,Stockholm Environment Institute,,,,,www.africa-adapt.net/media/resources/893/adaptation-toolkit.pdf,2013,"Educational resource , Publication",pdf,Dewi Kirono,
3288357a-292a-11e6-9979-a0999b1beb5b,"Climate change and Environmental Degradation Risk and adaptation Assessment, A strategic environmental risk assessment process for agencies in developing countries ",Guidance for local humanitarian and NGOs to take a structured approach to identifying possible impacts of climate and environmental change,"The CEDRA process is designed to help local humanitarian and development agencies (NGOs) take a structured approach to identifying possible impacts of climate and environmental change. It helps user access and understand climate and environmental science and compare this with communities’ experience.CEDRA is a strategic tool to help organisations integrate adaptation into development and disasterrisk reduction (DRR) work, thus it may also be useful for other bodies such as national or local government.","CLIMATE AND WEATHER Adaptation, CLIMATE AND WEATHER Vulnerability, CLIMATE AND WEATHER Risks","Climate Change Adaptation, Climate Change Vulnerability & Impact Assessment",Global,N/A,,CEDRA Tearfund,,,,,http://tilz.tearfund.org/~/media/Files/TILZ/Topics/Environmental%20Sustainability/CEDRA%20version%202/01CEDRA_Book_And_Forms/CEDRA_main_document.pdf,2012,"Educational resource , Publication",pdf,Dewi Kirono,
32886fb8-292a-11e6-b088-a0999b1beb5b,Participatory Vulnerability Analysis A step–by–step guide for field staff,"Guideline for field workers and communities to analyse people’s vulnerability, draw action plans, mobilise resources and enact appropriate policies, laws and strategies to reduce their vulnerability to disaster","This guide is developed to assist field workers and communities to analyse people’s vulnerability, draw action plans, mobilise resources and enact appropriate policies, laws and strategies to reduce their vulnerability to disaster. There are few guidelines developed by other organisations on how communities can carry out vulnerability analysis.The guide provides suggestions for tools that can be used for the analysis, but does not provide information on details of each tool.",CLIMATE AND WEATHER Vulnerability,"Climate Change Adaptation, Climate Change Vulnerability & Impact Assessment, Disaster Risk Management","Global, United kingdom","[
  {
    ""place_id"": ""144765745"",
    ""licence"": ""Data © OpenStreetMap contributors, ODbL 1.0. http://www.openstreetmap.org/copyright"",
    ""osm_type"": ""relation"",
    ""osm_id"": ""62149"",
    ""boundingbox"": [
      ""49.674"",
      ""61.061"",
      ""-14.0155169"",
      ""2.0919117""
    ],
    ""lat"": ""54.7023545"",
    ""lon"": ""-3.2765752"",
    ""display_name"": ""United Kingdom"",
    ""class"": ""boundary"",
    ""type"": ""administrative"",
    ""importance"": 1.0669205638616,
    ""icon"": ""http://nominatim.openstreetmap.org/images/mapicons/poi_boundary_administrative.p.20.png"",
    ""address"": {
      ""country"": ""United Kingdom"",
      ""country_code"": ""gb""
    }
  }
]",,ActionAid,,,,,http://www.actionaid.org.uk/sites/default/files/doc_lib/108_1_participatory_vulnerability_analysis_guide.pdf,2005,"Educational resource , Publication",pdf,Dewi Kirono,
3288a382-292a-11e6-b9a7-a0999b1beb5b,"Compendium on methods and tools to evaluate impacts of, and vulnerability and adaptation to climate change","Compendium on frameworks, methods, and tools used in climate change IAV assessments","This document summarizes existing frameworks, methods, and tools used in climate change IAV assessments. First, it reviews some of the complete frameworks, namely methods that prescribe an entire process for the assessment of vulnerability and adaptation and in some instances assemble toolkits to support this process. Second, the compendium establishes a structure for cataloging tools that assist in addressing key cross-cutting themes or whose application spans multiple steps of the assessment process, as well as discrete tools that are applicable to multiple sectors. Third, as the first version of the compendium did, this revised version organizes discrete tools specific to particular sectors.The compendium is intended for use by either assessment managers or technical researchers to identify available frameworks and tools for assessing vulnerability and adaptation. Although some of the frameworks and tools described in the document may require particular expertise, overall it does not require extensive technical knowledge of modeling or specific decision-making techniques. ","CLIMATE AND WEATHER Impacts, CLIMATE AND WEATHER Adaptation, CLIMATE AND WEATHER Vulnerability","Climate Science, Climate Change Adaptation, Climate Change Vulnerability & Impact Assessment",Global,N/A,,UNFCC,,,,,http://unfccc.int/files/adaptation/methodologies_for/vulnerability_and_adaptation/application/pdf/consolidated_version_updated_021204.pdf,2005,"Educational resource , Publication",pdf,Dewi Kirono,
3288d9ee-292a-11e6-afac-a0999b1beb5b,The PROVIA / MEDIATION Adaptation Platform,A web-based platform that help for specifying tasks that must be performed to address climate hazards effectively,"This platform helps to specify the tasks that must be performed to address climate hazards effectively. It provides access to a Toolbox with methods and tools that are suitable to inform decision-making, dependent on the situation. It does this through the PROVIA / MEDIATION Adaptation Pathfinder. The decision trees in this Task Navigator have been derived from a number of diverse case studies in different parts of Europe.The platform is suitable for one who has some prior knowledge on climate risk assessment and adaptation.","CLIMATE AND WEATHER Risks, CLIMATE AND WEATHER Adaptation, CLIMATE AND WEATHER Impacts","Climate Change Adaptation, Climate Change Vulnerability & Impact Assessment, Disaster Risk Management","Global, Europe","[
  {
    ""place_id"": ""121201"",
    ""licence"": ""Data © OpenStreetMap contributors, ODbL 1.0. http://www.openstreetmap.org/copyright"",
    ""osm_type"": ""node"",
    ""osm_id"": ""25871341"",
    ""boundingbox"": [
      ""50.9999503"",
      ""51.0000503"",
      ""9.9999497"",
      ""10.0000497""
    ],
    ""lat"": ""51.0000003"",
    ""lon"": ""9.9999997"",
    ""display_name"": ""Europe"",
    ""class"": ""place"",
    ""type"": ""continent"",
    ""importance"": 0.96710131393241,
    ""address"": {
      ""continent"": ""Europe""
    }
  }
]",,PROVIA/MEDIATION,,,,,http://www.mediation-project.eu/platform/,,"Website, Tool ",,Dewi Kirono,
32890f40-292a-11e6-acf0-a0999b1beb5b,European Climate Adaptation Platform,Adaptation Support Tool ,"This Adaptation Support Tool is to assist users in developing climate change adaptation strategies and plans by providing guidance, links to relevant sources and dedicated tools. It provides a common understanding of key features relevant to adaptation processes, building on the experience available in the European Union. Urban Adaptation support tool, in particular, is highlighted","CLIMATE AND WEATHER Risks, CLIMATE AND WEATHER Adaptation, CLIMATE AND WEATHER Impacts","Climate Change Adaptation, Climate Change Vulnerability & Impact Assessment, Disaster Risk Management","Global, Europe","[
  {
    ""place_id"": ""121201"",
    ""licence"": ""Data © OpenStreetMap contributors, ODbL 1.0. http://www.openstreetmap.org/copyright"",
    ""osm_type"": ""node"",
    ""osm_id"": ""25871341"",
    ""boundingbox"": [
      ""50.9999503"",
      ""51.0000503"",
      ""9.9999497"",
      ""10.0000497""
    ],
    ""lat"": ""51.0000003"",
    ""lon"": ""9.9999997"",
    ""display_name"": ""Europe"",
    ""class"": ""place"",
    ""type"": ""continent"",
    ""importance"": 0.96710131393241,
    ""address"": {
      ""continent"": ""Europe""
    }
  }
]",,"European Commission, European Environment Agency",,,,,http://climate-adapt.eea.europa.eu/adaptation-support-tool,,"Tool , Website",,Dewi Kirono,
328943e8-292a-11e6-bc58-a0999b1beb5b,EBM Climate Change Vulnerability Assessment and Adaptation Tools,A Web platform that provides links to many tools necessary to conduct climate-related planning activities,"This platform provides links to many tools necessary to conduct climate-related planning activities.The tools are divided into sections according to function:• Process Tools: are those that will help a community design and conduct a planning process that incorporates the unique elements that address the vulnerabilities, risks and uncertainties inherent in climate-related planning.• Portals: give access to other tools and/or data that may be important in climate work.• Analytical Tools: allow planners to investigate current conditions and ecosystem processes, determine the effects of potential future conditions, and explore scenarios to determine potential effects of planning decisions. These are the most technically challenging of the tools, often requiring GIS software, expertise and training• Visualization Tools: allow users to build unique tools and simulations that enable stakeholder engagement though the use of pictures or web-based tools. The tools in this group are generally simple to use, but can include web-based GIS visualization tools that require special software, hardware and expertise.• Socio-economic Tools: provide community level socio-economic data that allows planners and stakeholders to visualize, explore, and understand the social impacts that could result from future hazards and climate change.• Natural Resource Tools: can be used to assess the vulnerability of ecosystems or specific species to climate change.","CLIMATE AND WEATHER Risks, CLIMATE AND WEATHER Adaptation, CLIMATE AND WEATHER Impacts",Climate Change Vulnerability & Impact Assessment,Global,N/A,,Coastal-Marine Ecosystem-Based Management (EBM) Tools Network,,,,,https://www.ebmtoolsdatabase.org/resource/climate-change-vulnerability-assessment-and-adaptation-tools,,Website,,Dewi Kirono,
3289780c-292a-11e6-9ae8-a0999b1beb5b,"Vulnerability Assessments, a Review of Approaches",A review on existing approaches and methods on Vulnerability Assessment that may be relevant to the Coastal Southeast Asia region,"This document present a review on existing approaches and methods on Vulnerability Assessment that may be relevant to the Coastal Southeast Asia region. The review was conducted as part of a four year project called “Building Resilience to Climate Change Impacts – Coastal Southeast Asia (BCR)”.The review emphasises on the approaches/methods suitability for use at the provincial, community, and households/individuals level.  ",CLIMATE AND WEATHER Vulnerability,Climate Change Vulnerability & Impact Assessment,Asia,"[
  {
    ""place_id"": ""205429"",
    ""licence"": ""Data © OpenStreetMap contributors, ODbL 1.0. http://www.openstreetmap.org/copyright"",
    ""osm_type"": ""node"",
    ""osm_id"": ""36966065"",
    ""boundingbox"": [
      ""55.9999502"",
      ""56.0000502"",
      ""103.9999498"",
      ""104.0000498""
    ],
    ""lat"": ""56.0000002"",
    ""lon"": ""103.9999998"",
    ""display_name"": ""Asia"",
    ""class"": ""place"",
    ""type"": ""continent"",
    ""importance"": 0.90099118250731,
    ""address"": {
      ""continent"": ""Asia""
    }
  }
]",,International Union for Conservation of Nature and Natural Resources (IUCN),,,,,www.iucn.org/dbtw-wpd/edocs/2011-068.pdf,2011,"Educational resource , Publication",pdf,Dewi Kirono,
3289ad88-292a-11e6-b18d-a0999b1beb5b,"Approaches to climate change impact, adaptation and vulnerability assessment","A review on existing research approaches, methods and tools for assessing climate change impacts, adaptation and vulnerability","A comprehensive review on existing research approaches, methods and tools for assessing climate change impacts, adaptation and vulnerability.The document is also intended as a first effort towards a development of a common platform for knowledge sharing.","CLIMATE AND WEATHER Adaptation, CLIMATE AND WEATHER Impacts, CLIMATE AND WEATHER Vulnerability","Climate Change Adaptation, Climate Change Vulnerability & Impact Assessment","Global, Finland","[
  {
    ""place_id"": ""141886067"",
    ""licence"": ""Data © OpenStreetMap contributors, ODbL 1.0. http://www.openstreetmap.org/copyright"",
    ""osm_type"": ""relation"",
    ""osm_id"": ""54224"",
    ""boundingbox"": [
      ""59.4541578"",
      ""70.0922939"",
      ""19.0832098"",
      ""31.5867044""
    ],
    ""lat"": ""63.2467777"",
    ""lon"": ""25.9209164"",
    ""display_name"": ""Finland"",
    ""class"": ""boundary"",
    ""type"": ""administrative"",
    ""importance"": 0.9393347932322,
    ""icon"": ""http://nominatim.openstreetmap.org/images/mapicons/poi_boundary_administrative.p.20.png"",
    ""address"": {
      ""country"": ""Finland"",
      ""country_code"": ""fi""
    }
  }
]",,Finnish Environment Institute (SYKE),,,,,http://mediation-project.eu/output/downloads/d2.1-report-on-existing-methods-final.pdf,2011,"Educational resource , Publication",pdf,Dewi Kirono,
3289e1ca-292a-11e6-a090-a0999b1beb5b,Review of climate change adaptation methods and tools ,"An overview of climate change adaptation key concepts and approaches, and the key issues related to the selection of approaches for adaptation planning relevant to countries in the Lower Mekong Basin (LMB)","This document, published by the Mekong River Commission (MRC), provides an overview of climate change adaptation key concepts and approaches, and the key issues related to the selection of approaches for adaptation planning relevant to countries in the Lower Mekong Basin (LMB). The document refers to various existing guidelines, models, toolkits and frameworks that support the process of planning adaptation. These include models to assess climate change impacts, and guidelines for identifying, designing, implementing and evaluating adaptation measures. The document also briefly evaluates these existing methods and tools using a SWOT (Strengths Weaknesses Opportunities & Threats) analysis.",CLIMATE AND WEATHER Adaptation,Climate Change Adaptation,Mekong Basin,N/A,,Mekong River Commission (MRC),,,,,http://www.mrcmekong.org/assets/Publications/technical/Tech-No34-Review-of-climate-change.pdf,2010,"Educational resource , Publication",pdf,Dewi Kirono,
,,,,,,,,,,,,,,,,,,,
,,,,,,,,,,,,,,,,,,,
,,,,,,,,,,,,,,,,,,,
,,,,,,,,,,,,,,,,,,,
,,,,,,,,,,,,,,,,,,,
,,,,,,,,,,,,,,,,,,,
,,,,,,,,,,,,,,,,,,,
,,,,,,,,,,,,,,,,,,,
,,,,,,,,,,,,,,,,,,,
,,,,,,,,,,,,,,,,,,,
,,,,,,,,,,,,,,,,,,,
,,,,,,,,,,,,,,,,,,,
,,,,,,,,,,,,,,,,,,,
,,,,,,,,,,,,,,,,,,,
,,,,,,,,,,,,,,,,,,,
,,,,,,,,,,,,,,,,,,,
,,,,,,,,,,,,,,,,,,,
,,,,,,,,,,,,,,,,,,,
,,,,,,,,,,,,,,,,,,,
,,,,,,,,,,,,,,,,,,,
,,,,,,,,,,,,,,,,,,,
,,,,,,,,,,,,,,,,,,,
,,,,,,,,,,,,,,,,,,,
,,,,,,,,,,,,,,,,,,,
,,,,,,,,,,,,,,,,,,,
,,,,,,,,,,,,,,,,,,,
,,,,,,,,,,,,,,,,,,,
,,,,,,,,,,,,,,,,,,,
,,,,,,,,,,,,,,,,,,,
,,,,,,,,,,,,,,,,,,,
,,,,,,,,,,,,,,,,,,,
,,,,,,,,,,,,,,,,,,,
,,,,,,,,,,,,,,,,,,,
,,,,,,,,,,,,,,,,,,,
,,,,,,,,,,,,,,,,,,,
,,,,,,,,,,,,,,,,,,,
,,,,,,,,,,,,,,,,,,,
,,,,,,,,,,,,,,,,,,,
,,,,,,,,,,,,,,,,,,,
,,,,,,,,,,,,,,,,,,,
,,,,,,,,,,,,,,,,,,,
,,,,,,,,,,,,,,,,,,,
,,,,,,,,,,,,,,,,,,,
,,,,,,,,,,,,,,,,,,,
,,,,,,,,,,,,,,,,,,,
,,,,,,,,,,,,,,,,,,,
,,,,,,,,,,,,,,,,,,,
,,,,,,,,,,,,,,,,,,,
,,,,,,,,,,,,,,,,,,,
,,,,,,,,,,,,,,,,,,,
,,,,,,,,,,,,,,,,,,,
,,,,,,,,,,,,,,,,,,,
,,,,,,,,,,,,,,,,,,,
,,,,,,,,,,,,,,,,,,,
,,,,,,,,,,,,,,,,,,,
,,,,,,,,,,,,,,,,,,,
,,,,,,,,,,,,,,,,,,,
,,,,,,,,,,,,,,,,,,,
,,,,,,,,,,,,,,,,,,,
,,,,,,,,,,,,,,,,,,,
,,,,,,,,,,,,,,,,,,,
,,,,,,,,,,,,,,,,,,,
,,,,,,,,,,,,,,,,,,,
,,,,,,,,,,,,,,,,,,,
,,,,,,,,,,,,,,,,,,,
,,,,,,,,,,,,,,,,,,,
,,,,,,,,,,,,,,,,,,,
,,,,,,,,,,,,,,,,,,,
,,,,,,,,,,,,,,,,,,,
,,,,,,,,,,,,,,,,,,,
,,,,,,,,,,,,,,,,,,,
,,,,,,,,,,,,,,,,,,,
,,,,,,,,,,,,,,,,,,,
,,,,,,,,,,,,,,,,,,,
,,,,,,,,,,,,,,,,,,,
,,,,,,,,,,,,,,,,,,,
,,,,,,,,,,,,,,,,,,,
,,,,,,,,,,,,,,,,,,,
,,,,,,,,,,,,,,,,,,,
,,,,,,,,,,,,,,,,,,,
,,,,,,,,,,,,,,,,,,,
,,,,,,,,,,,,,,,,,,,
,,,,,,,,,,,,,,,,,,,
,,,,,,,,,,,,,,,,,,,
,,,,,,,,,,,,,,,,,,,
,,,,,,,,,,,,,,,,,,,
,,,,,,,,,,,,,,,,,,,
,,,,,,,,,,,,,,,,,,,
,,,,,,,,,,,,,,,,,,,
,,,,,,,,,,,,,,,,,,,
,,,,,,,,,,,,,,,,,,,
,,,,,,,,,,,,,,,,,,,
,,,,,,,,,,,,,,,,,,,
,,,,,,,,,,,,,,,,,,,
,,,,,,,,,,,,,,,,,,,
,,,,,,,,,,,,,,,,,,,
,,,,,,,,,,,,,,,,,,,
,,,,,,,,,,,,,,,,,,,
,,,,,,,,,,,,,,,,,,,
,,,,,,,,,,,,,,,,,,,
,,,,,,,,,,,,,,,,,,,
,,,,,,,,,,,,,,,,,,,
,,,,,,,,,,,,,,,,,,,
,,,,,,,,,,,,,,,,,,,
,,,,,,,,,,,,,,,,,,,
,,,,,,,,,,,,,,,,,,,
,,,,,,,,,,,,,,,,,,,
,,,,,,,,,,,,,,,,,,,
,,,,,,,,,,,,,,,,,,,
,,,,,,,,,,,,,,,,,,,
,,,,,,,,,,,,,,,,,,,
,,,,,,,,,,,,,,,,,,,
,,,,,,,,,,,,,,,,,,,
,,,,,,,,,,,,,,,,,,,
,,,,,,,,,,,,,,,,,,,
,,,,,,,,,,,,,,,,,,,
,,,,,,,,,,,,,,,,,,,
,,,,,,,,,,,,,,,,,,,
,,,,,,,,,,,,,,,,,,,
,,,,,,,,,,,,,,,,,,,
,,,,,,,,,,,,,,,,,,,
,,,,,,,,,,,,,,,,,,,
,,,,,,,,,,,,,,,,,,,
,,,,,,,,,,,,,,,,,,,
,,,,,,,,,,,,,,,,,,,
,,,,,,,,,,,,,,,,,,,
,,,,,,,,,,,,,,,,,,,
,,,,,,,,,,,,,,,,,,,
,,,,,,,,,,,,,,,,,,,
,,,,,,,,,,,,,,,,,,,
,,,,,,,,,,,,,,,,,,,
,,,,,,,,,,,,,,,,,,,
,,,,,,,,,,,,,,,,,,,
,,,,,,,,,,,,,,,,,,,
,,,,,,,,,,,,,,,,,,,
,,,,,,,,,,,,,,,,,,,
,,,,,,,,,,,,,,,,,,,
,,,,,,,,,,,,,,,,,,,
,,,,,,,,,,,,,,,,,,,
,,,,,,,,,,,,,,,,,,,
,,,,,,,,,,,,,,,,,,,
,,,,,,,,,,,,,,,,,,,
,,,,,,,,,,,,,,,,,,,
,,,,,,,,,,,,,,,,,,,
,,,,,,,,,,,,,,,,,,,
,,,,,,,,,,,,,,,,,,,
,,,,,,,,,,,,,,,,,,,
,,,,,,,,,,,,,,,,,,,
,,,,,,,,,,,,,,,,,,,
,,,,,,,,,,,,,,,,,,,
,,,,,,,,,,,,,,,,,,,
,,,,,,,,,,,,,,,,,,,
,,,,,,,,,,,,,,,,,,,
,,,,,,,,,,,,,,,,,,,
,,,,,,,,,,,,,,,,,,,
,,,,,,,,,,,,,,,,,,,
,,,,,,,,,,,,,,,,,,,
,,,,,,,,,,,,,,,,,,,
,,,,,,,,,,,,,,,,,,,
,,,,,,,,,,,,,,,,,,,
,,,,,,,,,,,,,,,,,,,
,,,,,,,,,,,,,,,,,,,
,,,,,,,,,,,,,,,,,,,
,,,,,,,,,,,,,,,,,,,
,,,,,,,,,,,,,,,,,,,
,,,,,,,,,,,,,,,,,,,
,,,,,,,,,,,,,,,,,,,
,,,,,,,,,,,,,,,,,,,
,,,,,,,,,,,,,,,,,,,
,,,,,,,,,,,,,,,,,,,
,,,,,,,,,,,,,,,,,,,
,,,,,,,,,,,,,,,,,,,
,,,,,,,,,,,,,,,,,,,
,,,,,,,,,,,,,,,,,,,
,,,,,,,,,,,,,,,,,,,
,,,,,,,,,,,,,,,,,,,
,,,,,,,,,,,,,,,,,,,
,,,,,,,,,,,,,,,,,,,
,,,,,,,,,,,,,,,,,,,
,,,,,,,,,,,,,,,,,,,
,,,,,,,,,,,,,,,,,,,
,,,,,,,,,,,,,,,,,,,
,,,,,,,,,,,,,,,,,,,